[
	{
		"data": [
			{
				"text": "premiered between ",
				"userDefined": false
			},
			{
				"text": "year",
				"userDefined": true,
				"alias": "year",
				"meta": "@year"
			},
			{
				"text": " and ",
				"userDefined": false
			},
			{
				"text": "yeartwo",
				"userDefined": true,
				"alias": "yeartwo",
				"meta": "@year"
			}
		],
		"isTemplate": false,
		"count": 0
	},
	{
		"data": [
			{
				"text": "find a film produced between ",
				"userDefined": false
			},
			{
				"text": "year",
				"userDefined": true,
				"alias": "year",
				"meta": "@year"
			},
			{
				"text": " and ",
				"userDefined": false
			},
			{
				"text": "yeartwo",
				"userDefined": true,
				"alias": "yeartwo",
				"meta": "@year"
			}
		],
		"isTemplate": false,
		"count": 0
	},
	{
		"data": [
			{
				"text": "look for film that premiered between ",
				"userDefined": false
			},
			{
				"text": "year",
				"userDefined": true,
				"alias": "year",
				"meta": "@year"
			},
			{
				"text": " and ",
				"userDefined": false
			},
			{
				"text": "yeartwo",
				"userDefined": true,
				"alias": "yeartwo",
				"meta": "@year"
			}
		],
		"isTemplate": false,
		"count": 0
	}
]