[
	{
		"data": [
			{
				"text": "genre",
				"userDefined": true,
				"alias": "genre",
				"meta": "@genre"
			}
		],
		"isTemplate": false,
		"count": 0
	},
	{
		"data": [
			{
				"text": "look for a ",
				"userDefined": false
			},
			{
				"text": "genre",
				"userDefined": true,
				"alias": "genre",
				"meta": "@genre"
			}
		],
		"isTemplate": false,
		"count": 0
	},
	{
		"data": [
			{
				"text": "look for a ",
				"userDefined": false
			},
			{
				"text": "genre",
				"userDefined": true,
				"alias": "genre",
				"meta": "@genre"
			},
			{
				"text": " movie",
				"userDefined": false
			}
		],
		"isTemplate": false,
		"count": 0
	},
	{
		"data": [
			{
				"text": "look for a ",
				"userDefined": false
			},
			{
				"text": "genre",
				"userDefined": true,
				"alias": "genre",
				"meta": "@genre"
			},
			{
				"text": " film",
				"userDefined": false
			}
		],
		"isTemplate": false,
		"count": 0
	}
]