[
	{
		"data": [
			{
				"text": "name",
				"userDefined": true,
				"alias": "name",
				"meta": "@sys.given-name"
			}
		],
		"isTemplate": false,
		"count": 0
	},
	{
		"data": [
			{
				"text": "my name is ",
				"userDefined": false
			},
			{
				"text": "name",
				"userDefined": true,
				"alias": "name",
				"meta": "@sys.given-name"
			}
		],
		"isTemplate": false,
		"count": 0
	},
	{
		"data": [
			{
				"text": "i am ",
				"userDefined": false
			},
			{
				"text": "name",
				"userDefined": true,
				"alias": "name",
				"meta": "@sys.given-name"
			}
		],
		"isTemplate": false,
		"count": 0
	},
	{
		"data": [
			{
				"text": "you can call me ",
				"userDefined": false
			},
			{
				"text": "name",
				"userDefined": true,
				"alias": "name",
				"meta": "@sys.given-name"
			}
		],
		"isTemplate": false,
		"count": 0
	},
	{
		"data": [
			{
				"text": "it's ",
				"userDefined": false
			},
			{
				"text": "name",
				"userDefined": true,
				"alias": "name",
				"meta": "@sys.given-name"
			}
		],
		"isTemplate": false,
		"count": 0
	},
	{
		"data": [
			{
				"text": "call me ",
				"userDefined": false
			},
			{
				"text": "name",
				"userDefined": true,
				"alias": "name",
				"meta": "@sys.given-name"
			}
		],
		"isTemplate": false,
		"count": 0
	}
]