[
	{
		"data": [
			{
				"text": "i want to watch film with ",
				"userDefined": false
			},
			{
				"text": "actress",
				"userDefined": true,
				"alias": "actress",
				"meta": "@actress"
			},
			{
				"text": " or ",
				"userDefined": false
			},
			{
				"text": "actresstwo",
				"userDefined": true,
				"alias": "actresstwo",
				"meta": "@actress"
			}
		],
		"isTemplate": false,
		"count": 0
	},
	{
		"data": [
			{
				"text": "i want to watch film with ",
				"userDefined": false
			},
			{
				"text": "actress",
				"userDefined": true,
				"alias": "actress",
				"meta": "@actress"
			},
			{
				"text": " and ",
				"userDefined": false
			},
			{
				"text": "actresstwo",
				"userDefined": true,
				"alias": "actresstwo",
				"meta": "@actress"
			}
		],
		"isTemplate": false,
		"count": 0
	}
]