[
	{
		"value": "Leonardo DiCaprio",
		"synonyms": [
			"Leonardo DiCaprio",
			"DiCaprio"
		]
	},
	{
		"value": "Al Pacino",
		"synonyms": [
			"Al Pacino",
			"Pacino"
		]
	},
	{
		"value": "Tom Hanks",
		"synonyms": [
			"Tom Hanks",
			"Hanks"
		]
	},
	{
		"value": "Kevin Spacey",
		"synonyms": [
			"Kevin Spacey",
			"Spacey"
		]
	},
	{
		"value": "Will Smith",
		"synonyms": [
			"Will Smith",
			"Smith"
		]
	},
	{
		"value": "Tom Hardy",
		"synonyms": [
			"Tom Hardy",
			"Hardy",
			"Thomas Hardy"
		]
	},
	{
		"value": "Johnny Depp",
		"synonyms": [
			"Johnny Depp",
			"Depp"
		]
	},
	{
		"value": "Jean Reno",
		"synonyms": [
			"Jean Reno",
			"Reno"
		]
	},
	{
		"value": "Tom Cruise",
		"synonyms": [
			"Tom Cruise",
			"Cruise"
		]
	},
	{
		"value": "Arnold Schwarzenegger",
		"synonyms": [
			"Arnold Schwarzenegger",
			"Schwarzenegger"
		]
	},
	{
		"value": "Mel Gibson",
		"synonyms": [
			"Mel Gibson",
			"Gibson"
		]
	},
	{
		"value": "Brad Pitt",
		"synonyms": [
			"Brad Pitt",
			"Pitt"
		]
	},
	{
		"value": "Bruce Willis",
		"synonyms": [
			"Bruce Willis",
			"Willis"
		]
	},
	{
		"value": "Nicolas Cage",
		"synonyms": [
			"Nicolas Cage",
			"Cage"
		]
	},
	{
		"value": "Samuel L. Jackson",
		"synonyms": [
			"Samuel L Jackson",
			"Samuel Jackson",
			"Jackson"
		]
	},
	{
		"value": "Eddie Murphy",
		"synonyms": [
			"Eddie Murphy",
			"Murphy"
		]
	},
	{
		"value": "Adam Sandler",
		"synonyms": [
			"Adam Sandler",
			"Sandler"
		]
	},
	{
		"value": "Robert Downey Jr",
		"synonyms": [
			"Robert Downey Jr",
			"Downey Jr"
		]
	},
	{
		"value": "Dwayne Johnson",
		"synonyms": [
			"Dwayne Johnson",
			"Johnson"
		]
	},
	{
		"value": "Quentin Tarantino",
		"synonyms": [
			"Quentin Tarantino",
			"Tarantino"
		]
	},
	{
		"value": "Sylvester Stallone",
		"synonyms": [
			"Sylvester Stallone",
			"Stallone"
		]
	},
	{
		"value": "Morgan Freeman",
		"synonyms": [
			"Morgan Freeman",
			"Freeman"
		]
	},
	{
		"value": "George Clooney",
		"synonyms": [
			"George Clooney",
			"Clooney"
		]
	},
	{
		"value": "Jackie Chan",
		"synonyms": [
			"Jackie Chan",
			"Chan"
		]
	},
	{
		"value": "Viggo Mortensen",
		"synonyms": [
			"Viggo Mortensen",
			"Mortensen"
		]
	},
	{
		"value": "Cillian Murphy",
		"synonyms": [
			"Cillian Murphy",
			"Murphy"
		]
	},
	{
		"value": "Leslie Nielsen",
		"synonyms": [
			"Leslie Nielsen",
			"Nielsen"
		]
	},
	{
		"value": "Colin Firth",
		"synonyms": [
			"Colin Firth",
			"Firth"
		]
	},
	{
		"value": "Tom Hiddleston",
		"synonyms": [
			"Tom Hiddleston",
			"Hiddleston"
		]
	},
	{
		"value": "Jim Carrey",
		"synonyms": [
			"Jim Carrey",
			"Carrey"
		]
	},
	{
		"value": "Jake Gyllenhaal",
		"synonyms": [
			"Jake Gyllenhaal",
			"Gyllenhaal"
		]
	},
	{
		"value": "Anthony Hopkins",
		"synonyms": [
			"Anthony Hopkins",
			"Hopkins"
		]
	},
	{
		"value": "Bradley Cooper",
		"synonyms": [
			"Bradley Cooper",
			"Cooper"
		]
	},
	{
		"value": "Gary Oldman",
		"synonyms": [
			"Gary Oldman",
			"Oldman"
		]
	},
	{
		"value": "Benedict Cumberbatch",
		"synonyms": [
			"Benedict Cumberbatch",
			"Cumberbatch"
		]
	},
	{
		"value": "Woody Harrelson",
		"synonyms": [
			"Woody Harrelson",
			"Harrelson"
		]
	},
	{
		"value": "Edward Norton",
		"synonyms": [
			"Edward Norton",
			"Norton"
		]
	},
	{
		"value": "Matthew McConaughey",
		"synonyms": [
			"Matthew McConaughey",
			"McConaughey"
		]
	},
	{
		"value": "Harrison Ford",
		"synonyms": [
			"Harrison Ford",
			"Ford"
		]
	},
	{
		"value": "Alan Rickman",
		"synonyms": [
			"Alan Rickman",
			"Rickman"
		]
	},
	{
		"value": "Clint Eastwood",
		"synonyms": [
			"Clint Eastwood",
			"Eastwood"
		]
	},
	{
		"value": "Chris Evans",
		"synonyms": [
			"Chris Evans",
			"Evans"
		]
	},
	{
		"value": "Hugh Jackman",
		"synonyms": [
			"Hugh Jackman",
			"Jackman"
		]
	},
	{
		"value": "Ryan Gosling",
		"synonyms": [
			"Ryan Gosling",
			"Gosling"
		]
	},
	{
		"value": "Matt Damon",
		"synonyms": [
			"Matt Damon",
			"Damon"
		]
	},
	{
		"value": "Jason Statham",
		"synonyms": [
			"Jason Statham",
			"Statham"
		]
	},
	{
		"value": "Chris Hemsworth",
		"synonyms": [
			"Chris Hemsworth",
			"Hemsworth"
		]
	},
	{
		"value": "Ryan Reynolds",
		"synonyms": [
			"Ryan Reynolds",
			"Reynolds"
		]
	},
	{
		"value": "Keanu Reeves",
		"synonyms": [
			"Keanu Reeves",
			"Reeves"
		]
	},
	{
		"value": "Jude Law",
		"synonyms": [
			"Jude Law",
			"Law"
		]
	}
]